Tag,Product,Provider,Parameter,Value,Description,Sub-tag,Sub-tag text,URL
Coffee,Subscription,Oak Lawn Coffee Subscription ,Price,150,A subscription could save you $50 per month this winter! ,,,coffeecups.com
Vacation,Subscription,Four Seasons Timeshare,Price,200,"Planning a ski vacation this year? A timeshare could help you save $2,000 over the next 10 vacations!",,,coffeeonthego.com 
Utility,Plan,Origin SmartPower,Price,350,Switch to SmartPower energy plan to save $105 per quarter! ,Eco-friendly,0 carbon footprint.,D